{
  "project_info": {
    "project_number": "381696926640",
    "firebase_url": "https://fir-messaging-7135d.firebaseio.com",
    "project_id": "fir-messaging-7135d",
    "storage_bucket": "fir-messaging-7135d.appspot.com"
  },
  "client": [
    {
      "client_info": {
        "mobilesdk_app_id": "1:381696926640:android:3310d51f3b86ecb57b2c75",
        "android_client_info": {
          "package_name": "com.freelance.firebase_messaging_app"
        }
      },
      "oauth_client": [
        {
          "client_id": "381696926640-2bs31ttg7osucm3fk05kclcc6km57706.apps.googleusercontent.com",
          "client_type": 3
        }
      ],
      "api_key": [
        {
          "current_key": "AIzaSyBM-Xkq40C7aDytes0tvlFIt9NOl9t2Mi8"
        }
      ],
      "services": {
        "appinvite_service": {
          "other_platform_oauth_client": [
            {
              "client_id": "381696926640-2bs31ttg7osucm3fk05kclcc6km57706.apps.googleusercontent.com",
              "client_type": 3
            }
          ]
        }
      }
    },
    {
      "client_info": {
        "mobilesdk_app_id": "1:381696926640:android:c3b4c7dffe4a786d7b2c75",
        "android_client_info": {
          "package_name": "com.freelance.firebase_route_notification"
        }
      },
      "oauth_client": [
        {
          "client_id": "381696926640-2bs31ttg7osucm3fk05kclcc6km57706.apps.googleusercontent.com",
          "client_type": 3
        }
      ],
      "api_key": [
        {
          "current_key": "AIzaSyBM-Xkq40C7aDytes0tvlFIt9NOl9t2Mi8"
        }
      ],
      "services": {
        "appinvite_service": {
          "other_platform_oauth_client": [
            {
              "client_id": "381696926640-2bs31ttg7osucm3fk05kclcc6km57706.apps.googleusercontent.com",
              "client_type": 3
            }
          ]
        }
      }
    },
    {
      "client_info": {
        "mobilesdk_app_id": "1:381696926640:android:0f20e2414ea73f037b2c75",
        "android_client_info": {
          "package_name": "com.freelance.shared_preference_firebase"
        }
      },
      "oauth_client": [
        {
          "client_id": "381696926640-2bs31ttg7osucm3fk05kclcc6km57706.apps.googleusercontent.com",
          "client_type": 3
        }
      ],
      "api_key": [
        {
          "current_key": "AIzaSyBM-Xkq40C7aDytes0tvlFIt9NOl9t2Mi8"
        }
      ],
      "services": {
        "appinvite_service": {
          "other_platform_oauth_client": [
            {
              "client_id": "381696926640-2bs31ttg7osucm3fk05kclcc6km57706.apps.googleusercontent.com",
              "client_type": 3
            }
          ]
        }
      }
    }
  ],
  "configuration_version": "1"
}